SM#1705_Task2/UART/simulation/qsim/UART.msim.vcd
$comment
	File created using the following command:
		vcd file UART.msim.vcd -direction
$end
$date
	Mon Nov 23 17:31:58 2020
$end
$version
	ModelSim Version 10.5b
$end
$timescale
	1ps
$end

$scope module UART_vlg_vec_tst $end
$var reg 1 ! CLOCK $end
$var reg 8 " TX_BYTE [7:0] $end
$var reg 1 # TX_DATA_VALID $end
$var wire 1 $ O_TX_DONE $end
$var wire 1 % O_TX_SERIAL $end

$scope module i1 $end
$var wire 1 & gnd $end
$var wire 1 ' vcc $end
$var wire 1 ( unknown $end
$var tri1 1 ) devclrn $end
$var tri1 1 * devpor $end
$var tri1 1 + devoe $end
$var wire 1 , O_TX_SERIAL~output_o $end
$var wire 1 - O_TX_DONE~output_o $end
$var wire 1 . CLOCK~input_o $end
$var wire 1 / CLOCK~inputclkctrl_outclk $end
$var wire 1 0 time_counter[0]~9_combout $end
$var wire 1 1 LessThan0~1_combout $end
$var wire 1 2 LessThan0~0_combout $end
$var wire 1 3 LessThan0~2_combout $end
$var wire 1 4 time_counter[0]~10 $end
$var wire 1 5 time_counter[1]~11_combout $end
$var wire 1 6 time_counter[1]~12 $end
$var wire 1 7 time_counter[2]~13_combout $end
$var wire 1 8 time_counter[2]~14 $end
$var wire 1 9 time_counter[3]~15_combout $end
$var wire 1 : time_counter[3]~16 $end
$var wire 1 ; time_counter[4]~17_combout $end
$var wire 1 < time_counter[4]~18 $end
$var wire 1 = time_counter[5]~19_combout $end
$var wire 1 > time_counter[5]~20 $end
$var wire 1 ? time_counter[6]~21_combout $end
$var wire 1 @ time_counter[6]~22 $end
$var wire 1 A time_counter[7]~23_combout $end
$var wire 1 B time_counter[7]~24 $end
$var wire 1 C time_counter[8]~25_combout $end
$var wire 1 D CLK~0_combout $end
$var wire 1 E CLK~feeder_combout $end
$var wire 1 F CLK~q $end
$var wire 1 G CLK~clkctrl_outclk $end
$var wire 1 H state.000~0_combout $end
$var wire 1 I state.000~q $end
$var wire 1 J TX_DATA_VALID~input_o $end
$var wire 1 K counter[0]~1_combout $end
$var wire 1 L counter[1]~0_combout $end
$var wire 1 M counter[2]~2_combout $end
$var wire 1 N Selector0~0_combout $end
$var wire 1 O Selector1~0_combout $end
$var wire 1 P Selector1~1_combout $end
$var wire 1 Q state.001~q $end
$var wire 1 R Selector2~0_combout $end
$var wire 1 S state.010~q $end
$var wire 1 T Selector0~1_combout $end
$var wire 1 U Selector0~2_combout $end
$var wire 1 V Selector4~0_combout $end
$var wire 1 W state.100~q $end
$var wire 1 X Selector3~0_combout $end
$var wire 1 Y state.011~q $end
$var wire 1 Z Selector5~0_combout $end
$var wire 1 [ TX_BYTE[2]~input_o $end
$var wire 1 \ data[2]~feeder_combout $end
$var wire 1 ] TX_BYTE[3]~input_o $end
$var wire 1 ^ TX_BYTE[1]~input_o $end
$var wire 1 _ TX_BYTE[0]~input_o $end
$var wire 1 ` Mux0~0_combout $end
$var wire 1 a Mux0~1_combout $end
$var wire 1 b TX_BYTE[6]~input_o $end
$var wire 1 c data[6]~feeder_combout $end
$var wire 1 d TX_BYTE[7]~input_o $end
$var wire 1 e TX_BYTE[5]~input_o $end
$var wire 1 f data[5]~feeder_combout $end
$var wire 1 g TX_BYTE[4]~input_o $end
$var wire 1 h Mux0~2_combout $end
$var wire 1 i Mux0~3_combout $end
$var wire 1 j Selector5~1_combout $end
$var wire 1 k Selector5~2_combout $end
$var wire 1 l value~q $end
$var wire 1 m Selector6~0_combout $end
$var wire 1 n done~q $end
$var wire 1 o time_counter [8] $end
$var wire 1 p time_counter [7] $end
$var wire 1 q time_counter [6] $end
$var wire 1 r time_counter [5] $end
$var wire 1 s time_counter [4] $end
$var wire 1 t time_counter [3] $end
$var wire 1 u time_counter [2] $end
$var wire 1 v time_counter [1] $end
$var wire 1 w time_counter [0] $end
$var wire 1 x data [7] $end
$var wire 1 y data [6] $end
$var wire 1 z data [5] $end
$var wire 1 { data [4] $end
$var wire 1 | data [3] $end
$var wire 1 } data [2] $end
$var wire 1 ~ data [1] $end
$var wire 1 !! data [0] $end
$var wire 1 "! counter [3] $end
$var wire 1 #! counter [2] $end
$var wire 1 $! counter [1] $end
$var wire 1 %! counter [0] $end
$upscope $end
$upscope $end
$enddefinitions $end
#0
$dumpvars
0!
b1010011 "
1#
x$
x%
0&
1'
x(
1)
1*
1+
x,
x-
0.
x/
x0
x1
x2
x3
x4
x5
x6
x7
x8
x9
x:
x;
x<
x=
x>
x?
x@
xA
xB
xC
xD
xE
0F
xG
xH
0I
1J
xK
xL
xM
xN
xO
xP
0Q
xR
0S
xT
xU
xV
0W
xX
0Y
xZ
0[
x\
0]
1^
1_
x`
xa
1b
xc
0d
0e
xf
1g
xh
xi
xj
xk
0l
xm
0n
0w
0v
0u
0t
0s
0r
0q
0p
0o
0!!
0~
0}
0|
0{
0z
0y
0x
0%!
0$!
0#!
z"!
$end
#159
0/
#493
11
#521
0h
#524
0`
#704
0K
#707
0L
#739
04
#753
08
#754
0N
#758
0<
#765
0@
#781
12
#785
10
#820
03
#831
0T
#851
0V
#883
0\
#888
1:
0G
#889
1B
#890
1>
0i
#891
0a
#897
16
#955
0R
#960
0M
#1031
0m
#1162
1O
#1176
1Z
#1251
05
#1265
09
#1270
0=
#1277
0A
#1400
0;
#1401
0C
#1402
0?
0U
#1406
0j
#1409
07
#1452
0X
#1660
0k
#1827
1H
#1830
1P
#2406
0D
#2922
1c
#3436
0f
#3613
1-
1$
#3850
1,
1%
#3869
0E
#5000
1!
#5600
1.
#5774
1/
#7749
1w
#8458
00
#8542
14
#9078
15
#10000
0!
#10706
0.
#10865
0/
#15000
1!
#15600
1.
#15774
1/
#17749
0w
1v
#18426
06
#18478
02
#18486
05
#18488
04
#18534
10
#18554
16
#19024
15
#20000
0!
#20706
0.
#20865
0/
#25000
1!
#25600
1.
#25774
1/
#27749
1w
#28458
00
#28542
14
#28608
06
#29054
05
#29144
17
#30000
0!
#30706
0.
#30865
0/
#35000
1!
#35600
1.
#35774
1/
#37749
0w
0v
1u
#38468
07
#38488
04
#38534
10
#38552
18
#38646
16
#38712
08
#39182
17
#40000
0!
#40706
0.
#40865
0/
#45000
1!
#45600
1.
#45774
1/
#47749
1w
#48458
00
#48542
14
#49078
15
#50000
0!
#50706
0.
#50865
0/
#55000
1!
#55600
1.
#55774
1/
#57749
0w
1v
#58426
06
#58486
05
#58488
04
#58492
18
#58534
10
#58554
16
#58620
08
#59024
15
#60000
0!
#60706
0.
#60865
0/
#65000
1!
#65600
1.
#65774
1/
#67749
1w
#68458
00
#68542
14
#68608
06
#68674
18
#69054
05
#69120
07
#69210
19
#70000
0!
#70706
0.
#70865
0/
#75000
1!
#75600
1.
#75774
1/
#77749
0w
0v
0u
1t
#78413
0:
#78473
09
#78488
04
#78502
08
#78534
10
#78548
17
#78568
1:
#78646
16
#79038
19
#79158
07
#80000
0!
#80706
0.
#80865
0/
#85000
1!
#85600
1.
#85774
1/
#87749
1w
#88458
00
#88542
14
#89078
15
#90000
0!
#90706
0.
#90865
0/
#95000
1!
#95600
1.
#95774
1/
#97749
0w
1v
#98426
06
#98486
05
#98488
04
#98534
10
#98554
16
#99024
15
#100000
0#
0!
#100706
0.
0J
#100865
0/
#102132
1U
#102506
0H
#102509
0P
#105000
1!
#105600
1.
#105774
1/
#107749
1w
#108458
00
#108542
14
#108608
06
#109054
05
#109144
17
#110000
0!
#110706
0.
#110865
0/
#115000
1!
#115600
1.
#115774
1/
#117749
0w
0v
1u
#118468
07
#118488
04
#118534
10
#118552
18
#118618
0:
#118646
16
#118712
08
#118778
1:
#119182
17
#120000
0!
#120706
0.
#120865
0/
#125000
1!
#125600
1.
#125774
1/
#127749
1w
#128458
00
#128542
14
#129078
15
#130000
0!
#130706
0.
#130865
0/
#135000
1!
#135600
1.
#135774
1/
#137749
0w
1v
#138426
06
#138486
05
#138488
04
#138492
18
#138534
10
#138554
16
#138558
0:
#138620
08
#138686
1:
#139024
15
#140000
0!
#140706
0.
#140865
0/
#145000
1!
#145600
1.
#145774
1/
#147749
1w
#148458
00
#148542
14
#148608
06
#148674
18
#148740
0:
#149054
05
#149120
07
#149186
09
#149276
1;
#150000
0!
#150706
0.
#150865
0/
#155000
1!
#155600
1.
#155774
1/
#157749
0w
0v
0u
0t
1s
#158468
0;
#158488
04
#158502
08
#158530
12
#158534
10
#158542
1<
#158548
17
#158637
1:
#158646
16
#158703
0<
#159158
07
#159173
1;
#160000
0!
#160706
0.
#160865
0/
#165000
1!
#165600
1.
#165774
1/
#167749
1w
#168458
00
#168542
14
#169078
15
#170000
0!
#170706
0.
#170865
0/
#175000
1!
#175600
1.
#175774
1/
#177749
0w
1v
#178426
06
#178478
02
#178486
05
#178488
04
#178534
10
#178554
16
#179024
15
#180000
0!
#180706
0.
#180865
0/
#185000
1!
#185600
1.
#185774
1/
#187749
1w
#188458
00
#188542
14
#188608
06
#189054
05
#189144
17
#190000
0!
#190706
0.
#190865
0/
#195000
1!
#195600
1.
#195774
1/
#197749
0w
0v
1u
#198468
07
#198488
04
#198534
10
#198552
18
#198646
16
#198712
08
#199182
17
#200000
b1000011 "
b1001011 "
b1001111 "
b1001101 "
1#
0!
#200600
1J
1]
1[
#200706
0.
0g
0^
#200865
0/
#201478
1\
#202002
0U
#202427
1H
#202430
1P
#205000
1!
#205600
1.
#205774
1/
#207749
1w
#208458
00
#208542
14
#209078
15
#210000
0!
#210706
0.
#210865
0/
#215000
1!
#215600
1.
#215774
1/
#217749
0w
1v
#218426
06
#218486
05
#218488
04
#218492
18
#218534
10
#218554
16
#218620
08
#219024
15
#220000
0!
#220706
0.
#220865
0/
#225000
1!
#225600
1.
#225774
1/
#227749
1w
#228458
00
#228542
14
#228608
06
#228674
18
#229054
05
#229120
07
#229210
19
#230000
0!
#230706
0.
#230865
0/
#235000
1!
#235600
1.
#235774
1/
#237749
0w
0v
0u
1t
#238413
0:
#238473
09
#238479
1<
#238488
04
#238502
08
#238534
10
#238548
17
#238568
1:
#238634
0<
#238646
16
#239038
19
#239158
07
#240000
0!
#240706
0.
#240865
0/
#245000
1!
#245600
1.
#245774
1/
#247749
1w
#248458
00
#248542
14
#249078
15
#250000
0!
#250706
0.
#250865
0/
#255000
1!
#255600
1.
#255774
1/
#257749
0w
1v
#258426
06
#258486
05
#258488
04
#258534
10
#258554
16
#259024
15
#260000
0!
#260706
0.
#260865
0/
#265000
1!
#265600
1.
#265774
1/
#267749
1w
#268458
00
#268542
14
#268608
06
#269054
05
#269144
17
#270000
0!
#270706
0.
#270865
0/
#275000
1!
#275600
1.
#275774
1/
#277749
0w
0v
1u
#278468
07
#278488
04
#278534
10
#278552
18
#278618
0:
#278646
16
#278684
1<
#278712
08
#278778
1:
#278844
0<
#279182
17
#280000
0!
#280706
0.
#280865
0/
#285000
1!
#285600
1.
#285774
1/
#287749
1w
#288458
00
#288542
14
#289078
15
#290000
0!
#290706
0.
#290865
0/
#295000
1!
#295600
1.
#295774
1/
#297749
0w
1v
#298426
06
#298486
05
#298488
04
#298492
18
#298534
10
#298554
16
#298558
0:
#298620
08
#298624
1<
#298686
1:
#298752
0<
#299024
15
#300000
0#
0!
#300706
0.
0J
#300865
0/
#302132
1U
#302506
0H
#302509
0P
#305000
1!
#305600
1.
#305774
1/
#307749
1w
#308458
00
#308542
14
#308608
06
#308674
18
#308740
0:
#308806
1<
#309054
05
#309120
07
#309186
09
#309252
0;
#309342
1=
#310000
0!
#310706
0.
#310865
0/
#315000
1!
#315600
1.
#315774
1/
#317749
0w
0v
0u
0t
0s
1r
#318415
0>
#318477
0=
#318488
04
#318502
08
#318507
0<
#318530
12
#318534
10
#318548
17
#318556
1;
#318573
1>
#318637
1:
#318646
16
#319043
1=
#319149
0;
#319158
07
#320000
0!
#320706
0.
#320865
0/
#325000
1!
#325600
1.
#325774
1/
#327749
1w
#328458
00
#328542
14
#329078
15
#330000
0!
#330706
0.
#330865
0/
#335000
1!
#335600
1.
#335774
1/
#337749
0w
1v
#338426
06
#338478
02
#338486
05
#338488
04
#338534
10
#338554
16
#339024
15
#340000
0!
#340706
0.
#340865
0/
#345000
1!
#345600
1.
#345774
1/
#347749
1w
#348458
00
#348542
14
#348608
06
#349054
05
#349144
17
#350000
0!
#350706
0.
#350865
0/
#355000
1!
#355600
1.
#355774
1/
#357749
0w
0v
1u
#358468
07
#358488
04
#358534
10
#358552
18
#358646
16
#358712
08
#359182
17
#360000
0!
#360706
0.
#360865
0/
#365000
1!
#365600
1.
#365774
1/
#367749
1w
#368458
00
#368542
14
#369078
15
#370000
0!
#370706
0.
#370865
0/
#375000
1!
#375600
1.
#375774
1/
#377749
0w
1v
#378426
06
#378486
05
#378488
04
#378492
18
#378534
10
#378554
16
#378620
08
#379024
15
#380000
0!
#380706
0.
#380865
0/
#385000
1!
#385600
1.
#385774
1/
#387749
1w
#388458
00
#388542
14
#388608
06
#388674
18
#389054
05
#389120
07
#389210
19
#390000
0!
#390706
0.
#390865
0/
#395000
1!
#395600
1.
#395774
1/
#397749
0w
0v
0u
1t
#398413
0:
#398473
09
#398488
04
#398502
08
#398534
10
#398548
17
#398568
1:
#398646
16
#399038
19
#399158
07
#400000
b1101 "
b101101 "
b101100 "
b111100 "
b110100 "
b110000 "
1#
0!
#400600
1J
1e
1g
#400706
0.
0b
0]
0[
0_
#400865
0/
#401589
0\
#402002
0U
#402427
1H
#402430
1P
#403800
1f
#403865
0c
#405000
1!
#405600
1.
#405774
1/
#407749
1w
#408458
00
#408542
14
#409078
15
#410000
0!
#410706
0.
#410865
0/
#415000
1!
#415600
1.
#415774
1/
#417749
0w
1v
#418426
06
#418486
05
#418488
04
#418534
10
#418554
16
#419024
15
#420000
0!
#420706
0.
#420865
0/
#425000
1!
#425600
1.
#425774
1/
#427749
1w
#428458
00
#428542
14
#428608
06
#429054
05
#429144
17
#430000
0!
#430706
0.
#430865
0/
#435000
1!
#435600
1.
#435774
1/
#437749
0w
0v
1u
#438468
07
#438488
04
#438534
10
#438552
18
#438618
0:
#438646
16
#438712
08
#438778
1:
#439182
17
#440000
0!
#440706
0.
#440865
0/
#445000
1!
#445600
1.
#445774
1/
#447749
1w
#448458
00
#448542
14
#449078
15
#450000
0!
#450706
0.
#450865
0/
#455000
1!
#455600
1.
#455774
1/
#457749
0w
1v
#458426
06
#458486
05
#458488
04
#458492
18
#458534
10
#458554
16
#458558
0:
#458620
08
#458686
1:
#459024
15
#460000
0!
#460706
0.
#460865
0/
#465000
1!
#465600
1.
#465774
1/
#467749
1w
#468458
00
#468542
14
#468608
06
#468674
18
#468740
0:
#469054
05
#469120
07
#469186
09
#469276
1;
#470000
0!
#470706
0.
#470865
0/
#475000
1!
#475600
1.
#475774
1/
#477749
0w
0v
0u
0t
1s
#478468
0;
#478488
04
#478502
08
#478530
12
#478534
10
#478542
1<
#478548
17
#478608
0>
#478637
1:
#478646
16
#478703
0<
#478769
1>
#479158
07
#479173
1;
#480000
0!
#480706
0.
#480865
0/
#485000
1!
#485600
1.
#485774
1/
#487749
1w
#488458
00
#488542
14
#489078
15
#490000
0!
#490706
0.
#490865
0/
#495000
1!
#495600
1.
#495774
1/
#497749
0w
1v
#498426
06
#498478
02
#498486
05
#498488
04
#498534
10
#498554
16
#499024
15
#500000
0#
0!
#500706
0.
0J
#500865
0/
#502132
1U
#502506
0H
#502509
0P
#505000
1!
#505600
1.
#505774
1/
#507749
1w
#508458
00
#508542
14
#508608
06
#509054
05
#509144
17
#510000
0!
#510706
0.
#510865
0/
#515000
1!
#515600
1.
#515774
1/
#517749
0w
0v
1u
#518468
07
#518488
04
#518534
10
#518552
18
#518646
16
#518712
08
#519182
17
#520000
0!
#520706
0.
#520865
0/
#525000
1!
#525600
1.
#525774
1/
#527749
1w
#528458
00
#528542
14
#529078
15
#530000
0!
#530706
0.
#530865
0/
#535000
1!
#535600
1.
#535774
1/
#537749
0w
1v
#538426
06
#538486
05
#538488
04
#538492
18
#538534
10
#538554
16
#538620
08
#539024
15
#540000
0!
#540706
0.
#540865
0/
#545000
1!
#545600
1.
#545774
1/
#547749
1w
#548458
00
#548542
14
#548608
06
#548674
18
#549054
05
#549120
07
#549210
19
#550000
0!
#550706
0.
#550865
0/
#555000
1!
#555600
1.
#555774
1/
#557749
0w
0v
0u
1t
#558413
0:
#558473
09
#558479
1<
#558488
04
#558502
08
#558534
10
#558545
0>
#558548
17
#558568
1:
#558634
0<
#558646
16
#558700
1>
#559038
19
#559158
07
#560000
0!
#560706
0.
#560865
0/
#565000
1!
#565600
1.
#565774
1/
#567749
1w
#568458
00
#568542
14
#569078
15
#570000
0!
#570706
0.
#570865
0/
#575000
1!
#575600
1.
#575774
1/
#577749
0w
1v
#578426
06
#578486
05
#578488
04
#578534
10
#578554
16
#579024
15
#580000
0!
#580706
0.
#580865
0/
#585000
1!
#585600
1.
#585774
1/
#587749
1w
#588458
00
#588542
14
#588608
06
#589054
05
#589144
17
#590000
0!
#590706
0.
#590865
0/
#595000
1!
#595600
1.
#595774
1/
#597749
0w
0v
1u
#598468
07
#598488
04
#598534
10
#598552
18
#598618
0:
#598646
16
#598684
1<
#598712
08
#598750
0>
#598778
1:
#598844
0<
#598910
1>
#599182
17
#600000
b110001 "
b110101 "
1#
0!
#600600
1J
1[
1_
#600706
0.
#600865
0/
#601478
1\
#602002
0U
#602427
1H
#602430
1P
#605000
1!
#605600
1.
#605774
1/
#607749
1w
#608458
00
#608542
14
#609078
15
#610000
0!
#610706
0.
#610865
0/
#615000
1!
#615600
1.
#615774
1/
#617749
0w
1v
#618426
06
#618486
05
#618488
04
#618492
18
#618534
10
#618554
16
#618558
0:
#618620
08
#618624
1<
#618686
1:
#618690
0>
#618752
0<
#618818
1>
#619024
15
#620000
0!
#620706
0.
#620865
0/
#625000
1!
#625600
1.
#625774
1/
#627749
1w
#628458
00
#628542
14
#628608
06
#628674
18
#628740
0:
#628806
1<
#628872
0>
#629054
05
#629120
07
#629186
09
#629252
0;
#629318
0=
#629408
1?
#630000
0!
#630706
0.
#630865
0/
#635000
1!
#635600
1.
#635774
1/
#637749
0w
0v
0u
0t
0s
0r
1q
#638477
0?
#638488
04
#638502
08
#638507
0<
#638534
10
#638548
17
#638556
1;
#638561
1@
#638637
1:
#638639
1>
#638646
16
#638705
0@
#639149
0;
#639158
07
#639175
1?
#640000
0!
#640706
0.
#640865
0/
#645000
1!
#645600
1.
#645774
1/
#647749
1w
#648458
00
#648542
14
#649078
15
#650000
0!
#650706
0.
#650865
0/
#655000
1!
#655600
1.
#655774
1/
#657749
0w
1v
#658426
06
#658486
05
#658488
04
#658534
10
#658554
16
#659024
15
#660000
0!
#660706
0.
#660865
0/
#665000
1!
#665600
1.
#665774
1/
#667749
1w
#668458
00
#668542
14
#668608
06
#669054
05
#669144
17
#670000
0!
#670706
0.
#670865
0/
#675000
1!
#675600
1.
#675774
1/
#677749
0w
0v
1u
#678468
07
#678488
04
#678534
10
#678552
18
#678646
16
#678712
08
#679182
17
#680000
0!
#680706
0.
#680865
0/
#685000
1!
#685600
1.
#685774
1/
#687749
1w
#688458
00
#688542
14
#689078
15
#690000
0!
#690706
0.
#690865
0/
#695000
1!
#695600
1.
#695774
1/
#697749
0w
1v
#698426
06
#698486
05
#698488
04
#698492
18
#698534
10
#698554
16
#698620
08
#699024
15
#700000
0#
0!
#700706
0.
0J
#700865
0/
#702132
1U
#702506
0H
#702509
0P
#705000
1!
#705600
1.
#705774
1/
#707749
1w
#708458
00
#708542
14
#708608
06
#708674
18
#709054
05
#709120
07
#709210
19
#710000
0!
#710706
0.
#710865
0/
#715000
1!
#715600
1.
#715774
1/
#717749
0w
0v
0u
1t
#718413
0:
#718473
09
#718488
04
#718502
08
#718534
10
#718548
17
#718568
1:
#718646
16
#719038
19
#719158
07
#720000
0!
#720706
0.
#720865
0/
#725000
1!
#725600
1.
#725774
1/
#727749
1w
#728458
00
#728542
14
#729078
15
#730000
0!
#730706
0.
#730865
0/
#735000
1!
#735600
1.
#735774
1/
#737749
0w
1v
#738426
06
#738486
05
#738488
04
#738534
10
#738554
16
#739024
15
#740000
0!
#740706
0.
#740865
0/
#745000
1!
#745600
1.
#745774
1/
#747749
1w
#748458
00
#748542
14
#748608
06
#749054
05
#749144
17
#750000
0!
#750706
0.
#750865
0/
#755000
1!
#755600
1.
#755774
1/
#757749
0w
0v
1u
#758468
07
#758488
04
#758534
10
#758552
18
#758618
0:
#758646
16
#758712
08
#758778
1:
#759182
17
#760000
0!
#760706
0.
#760865
0/
#765000
1!
#765600
1.
#765774
1/
#767749
1w
#768458
00
#768542
14
#769078
15
#770000
0!
#770706
0.
#770865
0/
#775000
1!
#775600
1.
#775774
1/
#777749
0w
1v
#778426
06
#778486
05
#778488
04
#778492
18
#778534
10
#778554
16
#778558
0:
#778620
08
#778686
1:
#779024
15
#780000
0!
#780706
0.
#780865
0/
#785000
1!
#785600
1.
#785774
1/
#787749
1w
#788458
00
#788542
14
#788608
06
#788674
18
#788740
0:
#789054
05
#789120
07
#789186
09
#789276
1;
#790000
0!
#790706
0.
#790865
0/
#795000
1!
#795600
1.
#795774
1/
#797749
0w
0v
0u
0t
1s
#798468
0;
#798488
04
#798502
08
#798534
10
#798542
1<
#798548
17
#798637
1:
#798646
16
#798703
0<
#799158
07
#799173
1;
#800000
b10101 "
b101 "
b100 "
b0 "
1#
0!
#800600
1J
#800706
0.
0e
0g
0[
0_
#800865
0/
#801589
0\
#802002
0U
#802427
1H
#802430
1P
#804142
0f
#805000
1!
#805600
1.
#805774
1/
#807749
1w
#808458
00
#808542
14
#809078
15
#810000
0!
#810706
0.
#810865
0/
#815000
1!
#815600
1.
#815774
1/
#817749
0w
1v
#818426
06
#818486
05
#818488
04
#818534
10
#818554
16
#819024
15
#820000
0!
#820706
0.
#820865
0/
#825000
1!
#825600
1.
#825774
1/
#827749
1w
#828458
00
#828542
14
#828608
06
#829054
05
#829144
17
#830000
0!
#830706
0.
#830865
0/
#835000
1!
#835600
1.
#835774
1/
#837749
0w
0v
1u
#838468
07
#838488
04
#838534
10
#838552
18
#838646
16
#838712
08
#839182
17
#840000
0!
#840706
0.
#840865
0/
#845000
1!
#845600
1.
#845774
1/
#847749
1w
#848458
00
#848542
14
#849078
15
#850000
0!
#850706
0.
#850865
0/
#855000
1!
#855600
1.
#855774
1/
#857749
0w
1v
#858426
06
#858486
05
#858488
04
#858492
18
#858534
10
#858554
16
#858620
08
#859024
15
#860000
0!
#860706
0.
#860865
0/
#865000
1!
#865600
1.
#865774
1/
#867749
1w
#868458
00
#868542
14
#868608
06
#868674
18
#869054
05
#869120
07
#869210
19
#870000
0!
#870706
0.
#870865
0/
#875000
1!
#875600
1.
#875774
1/
#877749
0w
0v
0u
1t
#878413
0:
#878473
09
#878479
1<
#878488
04
#878502
08
#878534
10
#878548
17
#878568
1:
#878634
0<
#878646
16
#879038
19
#879158
07
#880000
0!
#880706
0.
#880865
0/
#885000
1!
#885600
1.
#885774
1/
#887749
1w
#888458
00
#888542
14
#889078
15
#890000
0!
#890706
0.
#890865
0/
#895000
1!
#895600
1.
#895774
1/
#897749
0w
1v
#898426
06
#898486
05
#898488
04
#898534
10
#898554
16
#899024
15
#900000
0#
0!
#900706
0.
0J
#900865
0/
#902132
1U
#902506
0H
#902509
0P
#905000
1!
#905600
1.
#905774
1/
#907749
1w
#908458
00
#908542
14
#908608
06
#909054
05
#909144
17
#910000
0!
#910706
0.
#910865
0/
#915000
1!
#915600
1.
#915774
1/
#917749
0w
0v
1u
#918468
07
#918488
04
#918534
10
#918552
18
#918618
0:
#918646
16
#918684
1<
#918712
08
#918778
1:
#918844
0<
#919182
17
#920000
0!
#920706
0.
#920865
0/
#925000
1!
#925600
1.
#925774
1/
#927749
1w
#928458
00
#928542
14
#929078
15
#930000
0!
#930706
0.
#930865
0/
#935000
1!
#935600
1.
#935774
1/
#937749
0w
1v
#938426
06
#938486
05
#938488
04
#938492
18
#938534
10
#938554
16
#938558
0:
#938620
08
#938624
1<
#938686
1:
#938752
0<
#939024
15
#940000
0!
#940706
0.
#940865
0/
#945000
1!
#945600
1.
#945774
1/
#947749
1w
#948458
00
#948542
14
#948608
06
#948674
18
#948740
0:
#948806
1<
#949054
05
#949120
07
#949186
09
#949252
0;
#949342
1=
#950000
0!
#950706
0.
#950865
0/
#955000
1!
#955600
1.
#955774
1/
#957749
0w
0v
0u
0t
0s
1r
#958415
0>
#958477
0=
#958481
1@
#958488
04
#958502
08
#958507
0<
#958534
10
#958548
17
#958556
1;
#958573
1>
#958637
1:
#958639
0@
#958646
16
#959043
1=
#959149
0;
#959158
07
#960000
0!
#960706
0.
#960865
0/
#965000
1!
#965600
1.
#965774
1/
#967749
1w
#968458
00
#968542
14
#969078
15
#970000
0!
#970706
0.
#970865
0/
#975000
1!
#975600
1.
#975774
1/
#977749
0w
1v
#978426
06
#978486
05
#978488
04
#978534
10
#978554
16
#979024
15
#980000
0!
#980706
0.
#980865
0/
#985000
1!
#985600
1.
#985774
1/
#987749
1w
#988458
00
#988542
14
#988608
06
#989054
05
#989144
17
#990000
0!
#990706
0.
#990865
0/
#995000
1!
#995600
1.
#995774
1/
#997749
0w
0v
1u
#998468
07
#998488
04
#998534
10
#998552
18
#998646
16
#998712
08
#999182
17
