SM#1705_Task2/ADC/simulation/qsim/ADC_Converted.msim.vcd
$comment
	File created using the following command:
		vcd file ADC_Converted.msim.vcd -direction
$end
$date
	Mon Nov 23 17:11:31 2020
$end
$version
	ModelSim Version 10.5b
$end
$timescale
	1ps
$end

$scope module ADC_verilog_vlg_vec_tst $end
$var reg 1 ! Dout $end
$var reg 1 " rst $end
$var reg 1 # sclk $end
$var wire 1 $ ADC_DATA_CH1 [11] $end
$var wire 1 % ADC_DATA_CH1 [10] $end
$var wire 1 & ADC_DATA_CH1 [9] $end
$var wire 1 ' ADC_DATA_CH1 [8] $end
$var wire 1 ( ADC_DATA_CH1 [7] $end
$var wire 1 ) ADC_DATA_CH1 [6] $end
$var wire 1 * ADC_DATA_CH1 [5] $end
$var wire 1 + ADC_DATA_CH1 [4] $end
$var wire 1 , ADC_DATA_CH1 [3] $end
$var wire 1 - ADC_DATA_CH1 [2] $end
$var wire 1 . ADC_DATA_CH1 [1] $end
$var wire 1 / ADC_DATA_CH1 [0] $end
$var wire 1 0 ADC_DATA_CH2 [11] $end
$var wire 1 1 ADC_DATA_CH2 [10] $end
$var wire 1 2 ADC_DATA_CH2 [9] $end
$var wire 1 3 ADC_DATA_CH2 [8] $end
$var wire 1 4 ADC_DATA_CH2 [7] $end
$var wire 1 5 ADC_DATA_CH2 [6] $end
$var wire 1 6 ADC_DATA_CH2 [5] $end
$var wire 1 7 ADC_DATA_CH2 [4] $end
$var wire 1 8 ADC_DATA_CH2 [3] $end
$var wire 1 9 ADC_DATA_CH2 [2] $end
$var wire 1 : ADC_DATA_CH2 [1] $end
$var wire 1 ; ADC_DATA_CH2 [0] $end
$var wire 1 < ADC_DATA_CH3 [11] $end
$var wire 1 = ADC_DATA_CH3 [10] $end
$var wire 1 > ADC_DATA_CH3 [9] $end
$var wire 1 ? ADC_DATA_CH3 [8] $end
$var wire 1 @ ADC_DATA_CH3 [7] $end
$var wire 1 A ADC_DATA_CH3 [6] $end
$var wire 1 B ADC_DATA_CH3 [5] $end
$var wire 1 C ADC_DATA_CH3 [4] $end
$var wire 1 D ADC_DATA_CH3 [3] $end
$var wire 1 E ADC_DATA_CH3 [2] $end
$var wire 1 F ADC_DATA_CH3 [1] $end
$var wire 1 G ADC_DATA_CH3 [0] $end
$var wire 1 H Din $end
$var wire 1 I cs $end

$scope module i1 $end
$var wire 1 J gnd $end
$var wire 1 K vcc $end
$var wire 1 L unknown $end
$var tri1 1 M devclrn $end
$var tri1 1 N devpor $end
$var tri1 1 O devoe $end
$var wire 1 P rst~input_o $end
$var wire 1 Q ADC_DATA_CH1[0]~output_o $end
$var wire 1 R ADC_DATA_CH1[1]~output_o $end
$var wire 1 S ADC_DATA_CH1[2]~output_o $end
$var wire 1 T ADC_DATA_CH1[3]~output_o $end
$var wire 1 U ADC_DATA_CH1[4]~output_o $end
$var wire 1 V ADC_DATA_CH1[5]~output_o $end
$var wire 1 W ADC_DATA_CH1[6]~output_o $end
$var wire 1 X ADC_DATA_CH1[7]~output_o $end
$var wire 1 Y ADC_DATA_CH1[8]~output_o $end
$var wire 1 Z ADC_DATA_CH1[9]~output_o $end
$var wire 1 [ ADC_DATA_CH1[10]~output_o $end
$var wire 1 \ ADC_DATA_CH1[11]~output_o $end
$var wire 1 ] ADC_DATA_CH2[0]~output_o $end
$var wire 1 ^ ADC_DATA_CH2[1]~output_o $end
$var wire 1 _ ADC_DATA_CH2[2]~output_o $end
$var wire 1 ` ADC_DATA_CH2[3]~output_o $end
$var wire 1 a ADC_DATA_CH2[4]~output_o $end
$var wire 1 b ADC_DATA_CH2[5]~output_o $end
$var wire 1 c ADC_DATA_CH2[6]~output_o $end
$var wire 1 d ADC_DATA_CH2[7]~output_o $end
$var wire 1 e ADC_DATA_CH2[8]~output_o $end
$var wire 1 f ADC_DATA_CH2[9]~output_o $end
$var wire 1 g ADC_DATA_CH2[10]~output_o $end
$var wire 1 h ADC_DATA_CH2[11]~output_o $end
$var wire 1 i ADC_DATA_CH3[0]~output_o $end
$var wire 1 j ADC_DATA_CH3[1]~output_o $end
$var wire 1 k ADC_DATA_CH3[2]~output_o $end
$var wire 1 l ADC_DATA_CH3[3]~output_o $end
$var wire 1 m ADC_DATA_CH3[4]~output_o $end
$var wire 1 n ADC_DATA_CH3[5]~output_o $end
$var wire 1 o ADC_DATA_CH3[6]~output_o $end
$var wire 1 p ADC_DATA_CH3[7]~output_o $end
$var wire 1 q ADC_DATA_CH3[8]~output_o $end
$var wire 1 r ADC_DATA_CH3[9]~output_o $end
$var wire 1 s ADC_DATA_CH3[10]~output_o $end
$var wire 1 t ADC_DATA_CH3[11]~output_o $end
$var wire 1 u Din~output_o $end
$var wire 1 v cs~output_o $end
$var wire 1 w sclk~input_o $end
$var wire 1 x sclk~inputclkctrl_outclk $end
$var wire 1 y pulse_number[0]~2_combout $end
$var wire 1 z Add2~0_combout $end
$var wire 1 { pulse_number[2]~0_combout $end
$var wire 1 | pulse_number[3]~1_combout $end
$var wire 1 } Equal0~0_combout $end
$var wire 1 ~ address[1]~0_combout $end
$var wire 1 !! Equal2~0_combout $end
$var wire 1 "! Dout~input_o $end
$var wire 1 #! Decoder0~0_combout $end
$var wire 1 $! data1[0]~0_combout $end
$var wire 1 %! data1_assign[0]~feeder_combout $end
$var wire 1 &! Equal1~0_combout $end
$var wire 1 '! Decoder0~1_combout $end
$var wire 1 (! data1[1]~1_combout $end
$var wire 1 )! data1_assign[1]~feeder_combout $end
$var wire 1 *! Decoder0~2_combout $end
$var wire 1 +! data1[2]~2_combout $end
$var wire 1 ,! data1_assign[2]~feeder_combout $end
$var wire 1 -! Decoder0~3_combout $end
$var wire 1 .! data1[3]~3_combout $end
$var wire 1 /! data1_assign[3]~feeder_combout $end
$var wire 1 0! Decoder0~4_combout $end
$var wire 1 1! data1[4]~4_combout $end
$var wire 1 2! data1_assign[4]~feeder_combout $end
$var wire 1 3! Decoder0~5_combout $end
$var wire 1 4! data1[5]~5_combout $end
$var wire 1 5! data1_assign[5]~feeder_combout $end
$var wire 1 6! Decoder0~6_combout $end
$var wire 1 7! data1[6]~6_combout $end
$var wire 1 8! data1_assign[6]~feeder_combout $end
$var wire 1 9! Decoder0~7_combout $end
$var wire 1 :! data1[7]~7_combout $end
$var wire 1 ;! data1_assign[7]~feeder_combout $end
$var wire 1 <! Decoder0~8_combout $end
$var wire 1 =! data1[8]~8_combout $end
$var wire 1 >! data1_assign[8]~feeder_combout $end
$var wire 1 ?! Decoder0~9_combout $end
$var wire 1 @! data1[9]~9_combout $end
$var wire 1 A! data1_assign[9]~feeder_combout $end
$var wire 1 B! Decoder0~10_combout $end
$var wire 1 C! data1[10]~10_combout $end
$var wire 1 D! data1_assign[10]~feeder_combout $end
$var wire 1 E! Decoder0~11_combout $end
$var wire 1 F! data1[11]~11_combout $end
$var wire 1 G! data1_assign[11]~feeder_combout $end
$var wire 1 H! Equal3~0_combout $end
$var wire 1 I! data2[0]~0_combout $end
$var wire 1 J! data2_assign[0]~feeder_combout $end
$var wire 1 K! data2[1]~1_combout $end
$var wire 1 L! data2_assign[1]~feeder_combout $end
$var wire 1 M! data2[2]~2_combout $end
$var wire 1 N! data2_assign[2]~feeder_combout $end
$var wire 1 O! data2[3]~3_combout $end
$var wire 1 P! data2_assign[3]~feeder_combout $end
$var wire 1 Q! data2[4]~4_combout $end
$var wire 1 R! data2_assign[4]~feeder_combout $end
$var wire 1 S! data2[5]~5_combout $end
$var wire 1 T! data2_assign[5]~feeder_combout $end
$var wire 1 U! data2[6]~6_combout $end
$var wire 1 V! data2_assign[6]~feeder_combout $end
$var wire 1 W! data2[7]~7_combout $end
$var wire 1 X! data2_assign[7]~feeder_combout $end
$var wire 1 Y! data2[8]~8_combout $end
$var wire 1 Z! data2_assign[8]~feeder_combout $end
$var wire 1 [! data2[9]~9_combout $end
$var wire 1 \! data2_assign[9]~feeder_combout $end
$var wire 1 ]! data2[10]~10_combout $end
$var wire 1 ^! data2_assign[10]~feeder_combout $end
$var wire 1 _! data2[11]~11_combout $end
$var wire 1 `! data2_assign[11]~feeder_combout $end
$var wire 1 a! Equal4~0_combout $end
$var wire 1 b! data3[0]~0_combout $end
$var wire 1 c! data3_assign[0]~feeder_combout $end
$var wire 1 d! data3[1]~1_combout $end
$var wire 1 e! data3_assign[1]~feeder_combout $end
$var wire 1 f! data3[2]~2_combout $end
$var wire 1 g! data3_assign[2]~feeder_combout $end
$var wire 1 h! data3[3]~3_combout $end
$var wire 1 i! data3_assign[3]~feeder_combout $end
$var wire 1 j! data3[4]~4_combout $end
$var wire 1 k! data3_assign[4]~feeder_combout $end
$var wire 1 l! data3[5]~5_combout $end
$var wire 1 m! data3_assign[5]~feeder_combout $end
$var wire 1 n! data3[6]~6_combout $end
$var wire 1 o! data3_assign[6]~feeder_combout $end
$var wire 1 p! data3[7]~7_combout $end
$var wire 1 q! data3_assign[7]~feeder_combout $end
$var wire 1 r! data3[8]~8_combout $end
$var wire 1 s! data3_assign[8]~feeder_combout $end
$var wire 1 t! data3[9]~9_combout $end
$var wire 1 u! data3_assign[9]~feeder_combout $end
$var wire 1 v! data3[10]~10_combout $end
$var wire 1 w! data3_assign[10]~feeder_combout $end
$var wire 1 x! data3[11]~11_combout $end
$var wire 1 y! data3_assign[11]~feeder_combout $end
$var wire 1 z! always0~0_combout $end
$var wire 1 {! address_value~0_combout $end
$var wire 1 |! address_value~1_combout $end
$var wire 1 }! address_value~q $end
$var wire 1 ~! value_neg~0_combout $end
$var wire 1 !" value_neg~1_combout $end
$var wire 1 "" value_neg~q $end
$var wire 1 #" value_pos~0_combout $end
$var wire 1 $" value_pos~q $end
$var wire 1 %" cs~0_combout $end
$var wire 1 &" data1_assign [11] $end
$var wire 1 '" data1_assign [10] $end
$var wire 1 (" data1_assign [9] $end
$var wire 1 )" data1_assign [8] $end
$var wire 1 *" data1_assign [7] $end
$var wire 1 +" data1_assign [6] $end
$var wire 1 ," data1_assign [5] $end
$var wire 1 -" data1_assign [4] $end
$var wire 1 ." data1_assign [3] $end
$var wire 1 /" data1_assign [2] $end
$var wire 1 0" data1_assign [1] $end
$var wire 1 1" data1_assign [0] $end
$var wire 1 2" data2_assign [11] $end
$var wire 1 3" data2_assign [10] $end
$var wire 1 4" data2_assign [9] $end
$var wire 1 5" data2_assign [8] $end
$var wire 1 6" data2_assign [7] $end
$var wire 1 7" data2_assign [6] $end
$var wire 1 8" data2_assign [5] $end
$var wire 1 9" data2_assign [4] $end
$var wire 1 :" data2_assign [3] $end
$var wire 1 ;" data2_assign [2] $end
$var wire 1 <" data2_assign [1] $end
$var wire 1 =" data2_assign [0] $end
$var wire 1 >" data3_assign [11] $end
$var wire 1 ?" data3_assign [10] $end
$var wire 1 @" data3_assign [9] $end
$var wire 1 A" data3_assign [8] $end
$var wire 1 B" data3_assign [7] $end
$var wire 1 C" data3_assign [6] $end
$var wire 1 D" data3_assign [5] $end
$var wire 1 E" data3_assign [4] $end
$var wire 1 F" data3_assign [3] $end
$var wire 1 G" data3_assign [2] $end
$var wire 1 H" data3_assign [1] $end
$var wire 1 I" data3_assign [0] $end
$var wire 1 J" data1 [11] $end
$var wire 1 K" data1 [10] $end
$var wire 1 L" data1 [9] $end
$var wire 1 M" data1 [8] $end
$var wire 1 N" data1 [7] $end
$var wire 1 O" data1 [6] $end
$var wire 1 P" data1 [5] $end
$var wire 1 Q" data1 [4] $end
$var wire 1 R" data1 [3] $end
$var wire 1 S" data1 [2] $end
$var wire 1 T" data1 [1] $end
$var wire 1 U" data1 [0] $end
$var wire 1 V" pulse_number [3] $end
$var wire 1 W" pulse_number [2] $end
$var wire 1 X" pulse_number [1] $end
$var wire 1 Y" pulse_number [0] $end
$var wire 1 Z" data2 [11] $end
$var wire 1 [" data2 [10] $end
$var wire 1 \" data2 [9] $end
$var wire 1 ]" data2 [8] $end
$var wire 1 ^" data2 [7] $end
$var wire 1 _" data2 [6] $end
$var wire 1 `" data2 [5] $end
$var wire 1 a" data2 [4] $end
$var wire 1 b" data2 [3] $end
$var wire 1 c" data2 [2] $end
$var wire 1 d" data2 [1] $end
$var wire 1 e" data2 [0] $end
$var wire 1 f" data3 [11] $end
$var wire 1 g" data3 [10] $end
$var wire 1 h" data3 [9] $end
$var wire 1 i" data3 [8] $end
$var wire 1 j" data3 [7] $end
$var wire 1 k" data3 [6] $end
$var wire 1 l" data3 [5] $end
$var wire 1 m" data3 [4] $end
$var wire 1 n" data3 [3] $end
$var wire 1 o" data3 [2] $end
$var wire 1 p" data3 [1] $end
$var wire 1 q" data3 [0] $end
$var wire 1 r" address [2] $end
$var wire 1 s" address [1] $end
$var wire 1 t" address [0] $end
$upscope $end
$upscope $end
$enddefinitions $end
#0
$dumpvars
0!
0"
0#
x/
x.
x-
x,
x+
x*
x)
x(
x'
x&
x%
x$
x;
x:
x9
x8
x7
x6
x5
x4
x3
x2
x1
x0
xG
xF
xE
xD
xC
xB
xA
x@
x?
x>
x=
x<
xH
xI
0J
1K
xL
1M
1N
1O
0P
xQ
xR
xS
xT
xU
xV
xW
xX
xY
xZ
x[
x\
x]
x^
x_
x`
xa
xb
xc
xd
xe
xf
xg
xh
xi
xj
xk
xl
xm
xn
xo
xp
xq
xr
xs
xt
xu
xv
0w
xx
1y
xz
x{
x|
x}
x~
x!!
0"!
x#!
x$!
x%!
x&!
x'!
x(!
x)!
x*!
x+!
x,!
x-!
x.!
x/!
x0!
x1!
x2!
x3!
x4!
x5!
x6!
x7!
x8!
x9!
x:!
x;!
x<!
x=!
x>!
x?!
x@!
xA!
xB!
xC!
xD!
xE!
xF!
xG!
xH!
xI!
xJ!
xK!
xL!
xM!
xN!
xO!
xP!
xQ!
xR!
xS!
xT!
xU!
xV!
xW!
xX!
xY!
xZ!
x[!
x\!
x]!
x^!
x_!
x`!
xa!
xb!
xc!
xd!
xe!
xf!
xg!
xh!
xi!
xj!
xk!
xl!
xm!
xn!
xo!
xp!
xq!
xr!
xs!
xt!
xu!
xv!
xw!
xx!
xy!
xz!
x{!
x|!
0}!
x~!
x!"
0""
x#"
0$"
x%"
01"
00"
0/"
0."
0-"
0,"
0+"
0*"
0)"
0("
0'"
0&"
0="
0<"
0;"
0:"
09"
08"
07"
06"
05"
04"
03"
02"
0I"
0H"
0G"
0F"
0E"
0D"
0C"
0B"
0A"
0@"
0?"
0>"
0U"
0T"
0S"
0R"
0Q"
0P"
0O"
0N"
0M"
0L"
0K"
0J"
0Y"
0X"
0W"
0V"
0e"
0d"
0c"
0b"
0a"
0`"
0_"
0^"
0]"
0\"
0["
0Z"
0q"
0p"
0o"
0n"
0m"
0l"
0k"
0j"
0i"
0h"
0g"
0f"
0t"
0s"
zr"
$end
#138
0x
#406
0/!
0;!
0e!
0u!
0w!
#407
0N!
0V!
0Z!
0`!
0c!
0i!
0m!
0s!
#408
02!
0D!
0P!
0X!
0\!
0y!
#409
0>!
0k!
0o!
#410
0A!
0G!
0T!
#450
0H!
0a!
#456
1!!
#519
1{!
#533
08!
#534
1%"
#536
0J!
0R!
#537
0^!
#539
0)!
#546
0L!
#566
0g!
#586
0~!
#627
0'!
#632
0#!
#668
03!
#672
0,!
#675
09!
#697
0%!
#698
0}
#716
05!
#729
0q!
#730
1z!
#732
0|
#734
06!
#749
0B!
#761
0!"
#807
0&!
#809
0?!
#855
00!
#894
0<!
#897
0{
#902
0*!
#903
0-!
#921
0z
#925
0Q!
#956
0E!
#974
0b!
#1052
1#"
#1109
0d!
#1113
0(!
0K!
#1121
0I!
#1122
0$!
#1135
0[!
0_!
#1279
0j!
#1280
0|!
#1370
0f!
#1374
0h!
#1394
0t!
0x!
#1402
0+!
#1430
04!
#1431
0Y!
#1432
0]!
#1436
0M!
#1437
0O!
#1474
0@!
#1477
0.!
#1483
0r!
#1486
0v!
#1492
07!
#1495
0C!
#1507
0W!
#1510
0U!
#1511
0S!
#1522
0n!
#1524
0p!
#1525
0l!
#1565
0=!
#1612
0:!
#1698
0~
#1746
01!
#1846
0F!
#3195
0d
04
#3210
0b
06
#3212
0p
0@
#3323
0j
0F
#3367
0h
00
#3368
0X
0(
#3373
0\
0$
#3401
0[
0%
#3405
0l
0D
#3415
0c
05
#3433
0k
0E
#3434
0_
09
#3509
0r
0>
#3545
0`
0f
02
08
#3550
0n
0B
#3560
0s
0=
#3593
0^
0:
#3603
0T
0,
#3610
0W
0)
#3706
0Z
0&
#3728
0t
0<
#3752
0]
0;
#3755
0Q
0/
#3757
0a
07
#3820
0e
03
#3824
0V
0*
#3837
0q
0?
#3853
0g
01
#3939
0R
0.
#3973
0m
0C
#4028
0U
0+
#4283
1v
1I
#4539
0i
0G
#4571
0Y
0'
#4767
0S
0-
#4792
0o
0A
#4921
0u
0H
#5000
1#
#5516
1w
#5670
1x
#7418
1Y"
#7787
0y
#7835
0{!
#8251
1z
#10000
1!
0#
#10516
1"!
#10681
0w
#10819
0x
#12950
1$"
#13286
0%"
#15000
1#
#15516
1w
#15670
1x
#16982
0v
0I
#17418
0Y"
1X"
#17771
1y
#17787
0z
#18080
0z!
#18331
1z
#20000
0#
#20681
0w
#20819
0x
#25000
1#
#25516
1w
#25670
1x
#27418
1Y"
#27787
0y
#28259
0z
#28270
1{
#30000
0#
#30681
0w
#30819
0x
#35000
1#
#35516
1w
#35670
1x
#37418
0Y"
0X"
1W"
#37771
1z
1y
#37787
0{
#37937
1{!
#38217
1E!
#38307
1{
#38339
0z
#38347
1&!
#38383
1|!
#39113
1F!
#40000
0!
0#
#40681
0w
0"!
#40819
0x
#42950
1}!
#44520
0F!
#45000
1#
#45516
1w
#45670
1x
#47418
1Y"
#47740
1u
1H
#47787
0y
#47835
0{!
#48000
1z!
#48082
1B!
#48083
0&!
#48251
1z
#48264
0E!
#50000
1!
0#
#50516
1"!
#50681
0w
#50819
0x
#53782
1C!
#55000
1#
#55516
1w
#55670
1x
#57418
0Y"
1X"
#57761
1K"
#57771
1y
#57787
0z
#58109
1D!
#58167
0B!
#58330
1?!
#58331
1z
#59004
1@!
#60000
0#
#60681
0w
#60819
0x
#65000
1#
#65516
1w
#65670
1x
#67418
1Y"
#67759
1L"
#67787
0y
#68002
1|
#68109
1A!
#68215
1<!
#68259
0z
#68261
0?!
#68282
0{
#68879
1=!
#70000
0!
0#
#70681
0w
0"!
#70819
0x
#74454
0=!
#75000
1#
#75516
1w
#75670
1x
#77418
0Y"
0X"
0W"
1V"
#77771
1{
1z
1y
#77787
0|
#77920
1~!
#77937
1{!
#78003
0<!
#78064
1!"
#78151
1|
#78216
0!"
#78315
0{
#78318
19!
#78339
0z
#80000
1!
0#
#80516
1"!
#80681
0w
#80819
0x
#83814
1:!
#85000
1#
#85516
1w
#85670
1x
#87418
1Y"
#87761
1N"
#87787
0y
#87835
0{!
#88047
16!
#88052
09!
#88108
1;!
#88251
1z
#88794
17!
#90000
0!
0#
#90681
0w
0"!
#90819
0x
#94251
07!
#95000
1#
#95516
1w
#95670
1x
#97418
0Y"
1X"
#97771
1y
#97787
0z
#98152
06!
#98244
13!
#98331
1z
#100000
0#
#100681
0w
#100819
0x
#105000
1#
#105516
1w
#105670
1x
#107418
1Y"
#107787
0y
#108066
03!
#108190
10!
#108259
0z
#108270
1{
#110000
0#
#110681
0w
#110819
0x
#115000
1#
#115516
1w
#115670
1x
#117418
0Y"
0X"
1W"
#117771
1z
1y
#117787
0{
#117937
1{!
#118253
00!
#118271
1-!
#118307
1{
#118339
0z
#120000
0#
#120681
0w
#120819
0x
#125000
1#
#125516
1w
#125670
1x
#127418
1Y"
#127787
0y
#127835
0{!
#128242
1*!
#128251
1z
#128280
0-!
#130000
1!
0#
#130516
1"!
#130681
0w
#130819
0x
#133931
1+!
#135000
1#
#135516
1w
#135670
1x
#137418
0Y"
1X"
#137758
1S"
#137771
1y
#137787
0z
#137982
0*!
#138063
0~!
#138309
1'!
#138331
1z
#138362
1,!
#138395
1!"
#138779
1(!
#140000
0#
#140681
0w
#140819
0x
#145000
1#
#145516
1w
#145670
1x
#147418
1Y"
1""
#147758
1T"
#147787
0y
#147992
0|
#148000
1}
#148002
1~!
#148208
1#!
#148221
1)!
#148240
0'!
#148259
0z
#148282
0{
#148298
0!"
#148318
0#"
#148686
1$!
#148987
1~
#150000
0#
#150681
0w
#150819
0x
#152950
0$"
#155000
1#
#155516
1w
#155670
1x
#157418
0Y"
0X"
0W"
0V"
1t"
1s"
0""
#157758
1U"
#157771
1|
1{
1z
1y
#157787
0~
0!!
#157914
1H!
#157925
1~
#157952
1%"
#158004
0~!
#158050
0#!
#158116
0}
#158150
0|
#158315
0{
#158339
0z
#158392
1%!
#158470
1#"
#160000
0#
#160681
0w
#160819
0x
#161701
1v
1I
#162950
1$"
#163286
0%"
#165000
1#
#165516
1w
#165670
1x
#166982
0v
0I
#167418
1Y"
#167787
0y
#167845
1{!
#168251
1z
#170000
0#
#170681
0w
#170819
0x
#175000
1#
#175516
1w
#175670
1x
#177418
0Y"
1X"
#177771
1y
#177787
0z
#177927
0{!
#178080
0z!
#178331
1z
#178673
0|!
#180000
0#
#180681
0w
#180819
0x
#182950
0}!
#185000
1#
#185516
1w
#185670
1x
#187418
1Y"
#187787
0y
#187845
1{!
#187871
0u
0H
#188259
0z
#188270
1{
#188291
1|!
#190000
0!
0#
#190681
0w
0"!
#190819
0x
#192950
1}!
#195000
1#
#195516
1w
#195670
1x
#197418
0Y"
0X"
1W"
#197740
1u
1H
#197771
1z
1y
#197787
0{
#197927
0{!
#198217
1E!
#198307
1{
#198339
0z
#198347
1&!
#198372
0|!
#200000
1!
0#
#200516
1"!
#200681
0w
#200819
0x
#202950
0}!
#204075
1_!
#205000
1#
#205516
1w
#205670
1x
#207418
1Y"
#207419
11"
10"
1/"
1("
#207421
1'"
#207422
1*"
#207759
1Z"
#207787
0y
#207845
1{!
#207871
0u
0H
#208000
1z!
#208082
1B!
#208083
0&!
#208107
1`!
#208251
1z
#208264
0E!
#208824
1]!
#210000
0!
0#
#210681
0w
0"!
#210779
1X
1(
#210802
1[
1%
#210819
0x
#211094
1Z
1&
#211146
1Q
1/
#211326
1R
1.
#212057
1S
1-
#214201
0]!
#215000
1#
#215516
1w
#215670
1x
#217418
0Y"
1X"
#217771
1y
#217787
0z
#217927
0{!
#218167
0B!
#218330
1?!
#218331
1z
#220000
1!
0#
#220516
1"!
#220681
0w
#220819
0x
#224074
1[!
#225000
1#
#225516
1w
#225670
1x
#227418
1Y"
#227759
1\"
#227787
0y
#227845
1{!
#228002
1|
#228108
1\!
#228215
1<!
#228259
0z
#228261
0?!
#228282
0{
#228957
1Y!
#230000
0!
0#
#230681
0w
0"!
#230819
0x
#234201
0Y!
#235000
1#
#235516
1w
#235670
1x
#237418
0Y"
0X"
0W"
1V"
#237771
1{
1z
1y
#237787
0|
#237920
1~!
#237927
0{!
#238003
0<!
#238064
1!"
#238151
1|
#238216
0!"
#238315
0{
#238318
19!
#238339
0z
#240000
0#
#240681
0w
#240819
0x
#245000
1#
#245516
1w
#245670
1x
#247418
1Y"
#247787
0y
#247845
1{!
#248047
16!
#248052
09!
#248251
1z
#250000
0#
#250681
0w
#250819
0x
#255000
1#
#255516
1w
#255670
1x
#257418
0Y"
1X"
#257771
1y
#257787
0z
#257927
0{!
#258152
06!
#258244
13!
#258331
1z
#260000
0#
#260681
0w
#260819
0x
#265000
1#
#265516
1w
#265670
1x
#267418
1Y"
#267787
0y
#267845
1{!
#268066
03!
#268190
10!
#268259
0z
#268270
1{
#270000
0#
#270681
0w
#270819
0x
#275000
1#
#275516
1w
#275670
1x
#277418
0Y"
0X"
1W"
#277771
1z
1y
#277787
0{
#277927
0{!
#278253
00!
#278271
1-!
#278307
1{
#278339
0z
#280000
0#
#280681
0w
#280819
0x
#285000
1#
#285516
1w
#285670
1x
#287418
1Y"
#287787
0y
#287845
1{!
#288242
1*!
#288251
1z
#288280
0-!
#290000
0#
#290681
0w
#290819
0x
#295000
1#
#295516
1w
#295670
1x
#297418
0Y"
1X"
#297771
1y
#297787
0z
#297927
0{!
#297982
0*!
#298063
0~!
#298309
1'!
#298331
1z
#298395
1!"
#300000
1!
0#
#300516
1"!
#300681
0w
#300819
0x
#303932
1K!
#305000
1#
#305516
1w
#305670
1x
#307418
1Y"
1""
#307758
1d"
#307787
0y
#307845
1{!
#307992
0|
#308000
1}
#308002
1~!
#308208
1#!
#308240
0'!
#308252
1L!
#308259
0z
#308282
0{
#308298
0!"
#308318
0#"
#308686
1I!
#310000
0#
#310681
0w
#310819
0x
#312950
0$"
#315000
1#
#315516
1w
#315670
1x
#317418
0Y"
0X"
0W"
0V"
0t"
0""
#317758
1e"
#317771
1|
1{
1z
1y
#317952
1%"
#317974
0~
#317998
1a!
#317999
0H!
#318004
0~!
#318050
0#!
#318116
0}
#318150
0|
#318219
1J!
#318315
0{
#318339
0z
#318470
1#"
#319108
1~
#320000
0!
0#
#320681
0w
0"!
#320819
0x
#321701
1v
1I
#322950
1$"
#323286
0%"
#325000
1#
#325516
1w
#325670
1x
#326982
0v
0I
#327418
1Y"
#327787
0y
#328251
1z
#330000
1!
0#
#330516
1"!
#330681
0w
#330819
0x
#335000
1#
#335516
1w
#335670
1x
#337418
0Y"
1X"
#337771
1y
#337787
0z
#337927
0{!
#338080
0z!
#338331
1z
#340000
0!
0#
#340681
0w
0"!
#340819
0x
#345000
1#
#345516
1w
#345670
1x
#347418
1Y"
#347787
0y
#347845
1{!
#348259
0z
#348270
1{
#348291
1|!
#350000
1!
0#
#350516
1"!
#350681
0w
#350819
0x
#352950
1}!
#355000
1#
#355516
1w
#355670
1x
#357418
0Y"
0X"
1W"
#357740
1u
1H
#357771
1z
1y
#357787
0{
#358217
1E!
#358307
1{
#358339
0z
#358347
1&!
#359114
1x!
#360000
0#
#360681
0w
#360819
0x
#365000
1#
#365516
1w
#365670
1x
#367418
1Y"
#367419
1="
1<"
14"
12"
#367759
1f"
#367787
0y
#368000
1z!
#368082
1B!
#368083
0&!
#368108
1y!
#368251
1z
#368264
0E!
#368820
1v!
#370000
0#
#370681
0w
#370763
1h
10
#370819
0x
#370973
1f
12
#371008
1^
1:
#371121
1]
1;
#375000
1#
#375516
1w
#375670
1x
#377418
0Y"
1X"
#377761
1g"
#377771
1y
#377787
0z
#377927
0{!
#378109
1w!
#378167
0B!
#378330
1?!
#378331
1z
#379002
1t!
#380000
0!
0#
#380681
0w
0"!
#380819
0x
#384519
0t!
#385000
1#
#385516
1w
#385670
1x
#387418
1Y"
#387787
0y
#387845
1{!
#388002
1|
#388215
1<!
#388259
0z
#388261
0?!
#388282
0{
#390000
0#
#390681
0w
#390819
0x
#395000
1#
#395516
1w
#395670
1x
#397418
0Y"
0X"
0W"
1V"
#397771
1{
1z
1y
#397787
0|
#397920
1~!
#398003
0<!
#398064
1!"
#398151
1|
#398216
0!"
#398315
0{
#398318
19!
#398339
0z
#400000
1!
0#
#400516
1"!
#400681
0w
#400819
0x
#403811
1p!
#405000
1#
#405516
1w
#405670
1x
#407418
1Y"
#407761
1j"
#407787
0y
#408047
16!
#408052
09!
#408251
1z
#408464
1q!
#408793
1n!
#410000
0!
0#
#410681
0w
0"!
#410819
0x
#414253
0n!
#415000
1#
#415516
1w
#415670
1x
#417418
0Y"
1X"
#417771
1y
#417787
0z
#417927
0{!
#418152
06!
#418244
13!
#418331
1z
#420000
1!
0#
#420516
1"!
#420681
0w
#420819
0x
#423811
1l!
#425000
1#
#425516
1w
#425670
1x
#427418
1Y"
#427761
1l"
#427787
0y
#427845
1{!
#428066
03!
#428109
1m!
#428190
10!
#428259
0z
#428270
1{
#429100
1j!
#430000
0!
0#
#430681
0w
0"!
#430819
0x
#434083
0j!
#435000
1#
#435516
1w
#435670
1x
#437418
0Y"
0X"
1W"
#437771
1z
1y
#437787
0{
#438253
00!
#438271
1-!
#438307
1{
#438339
0z
#440000
0#
#440681
0w
#440819
0x
#445000
1#
#445516
1w
#445670
1x
#447418
1Y"
#447787
0y
#448242
1*!
#448251
1z
#448280
0-!
#450000
0#
#450681
0w
#450819
0x
#455000
1#
#455516
1w
#455670
1x
#457418
0Y"
1X"
#457771
1y
#457787
0z
#457927
0{!
#457982
0*!
#458063
0~!
#458309
1'!
#458331
1z
#458395
1!"
#460000
1!
0#
#460516
1"!
#460681
0w
#460819
0x
#464015
1d!
#465000
1#
#465516
1w
#465670
1x
#467418
1Y"
1""
#467758
1p"
#467787
0y
#467845
1{!
#467992
0|
#468000
1}
#468002
1~!
#468106
1e!
#468208
1#!
#468240
0'!
#468259
0z
#468282
0{
#468298
0!"
#468318
0#"
#468534
1b!
#468995
0~
#470000
0!
0#
#470681
0w
0"!
#470819
0x
#472950
0$"
#474459
0b!
#475000
1#
#475516
1w
#475670
1x
#477418
0Y"
0X"
0W"
0V"
0s"
0""
#477771
1~
1|
1{
1z
1y
#477868
0a!
#477874
1!!
#477952
1%"
#478004
0~!
#478050
0#!
#478116
0}
#478150
0|
#478315
0{
#478339
0z
#478470
1#"
#479116
0~
#480000
0#
#480681
0w
#480819
0x
#481701
1v
1I
#482950
1$"
#483286
0%"
#485000
1#
#485516
1w
#485670
1x
#486982
0v
0I
#487418
1Y"
#487787
0y
#487835
0{!
#488251
1z
#490000
0#
#490681
0w
#490819
0x
#495000
1#
#495516
1w
#495670
1x
#497418
0Y"
1X"
#497771
1y
#497787
0z
#498080
0z!
#498331
1z
#498673
0|!
#500000
1!
0#
#500516
1"!
#500681
0w
#500819
0x
#502950
0}!
#505000
1#
#505516
1w
#505670
1x
#507418
1Y"
#507787
0y
#507871
0u
0H
#508259
0z
#508270
1{
#510000
0#
#510681
0w
#510819
0x
#515000
1#
#515516
1w
#515670
1x
#517418
0Y"
0X"
1W"
#517771
1z
1y
#517787
0{
